module gitlab.torproject.org/meskio/uget

go 1.19

require (
	github.com/refraction-networking/utls v1.1.5
	golang.org/x/net v0.1.0
)

require (
	github.com/andybalholm/brotli v1.0.4 // indirect
	github.com/klauspost/compress v1.15.9 // indirect
	golang.org/x/crypto v0.0.0-20220829220503-c86fa9a7ed90 // indirect
	golang.org/x/sys v0.1.0 // indirect
	golang.org/x/text v0.4.0 // indirect
)
